Inverse Probability Weighting for Time Dependent Data
…
# options to load and examine data
## use one of these lines
D <- read_csv(here("data","example_dat.csv"))
# D <- read_csv("change path to directoty that includes data")
# D <- read.csv("change path to directoty that includes data")

D %>% print(n=16)

## # A tibble: 44,645 x 10
##       ID   int  time     X   Xm1     Z   Zm1     Y timem1 last_flag
##    <dbl> <dbl> <dbl> <dbl> <dbl> <dbl> <dbl> <dbl>  <dbl>     <dbl>
##  1     1     1  1        0     0     1     0     0      0         0
##  2     1     2  2        0     0     1     1     0      1         0
##  3     1     3  3        0     0     0     1     0      2         0
##  4     1     4  4        0     0     1     0     0      3         0
##  5     1     5  5        1     0     0     1     0      4         0
##  6     1     6  6        1     1     0     0     0      5         0
##  7     1     7  7        0     1     0     0     0      6         0
##  8     1     8  8        0     0     1     0     0      7         0
##  9     1     9  9        0     0     0     1     0      8         0
## 10     1    10 10        1     0     1     0     0      9         0
## 11     1    11 11        0     1     0     1     0     10         0
## 12     1    12 12        1     0     1     0     0     11         1
## 13     2     1  1        0     0     0     0     0      0         0
## 14     2     2  2        1     0     1     0     0      1         0
## 15     2     3  3        0     1     1     1     0      2         0
## 16     2     4  3.21     1     0     1     1     1      3         1
## #  with 44,629 more rows
…
Our first objective will be to use IP-weighting in these data to erase the arrow from \(Z_j\) to \(X_j\), for all time points \(j\).

To do this, we first create two propensity scores. The first will be the usual propensity score, defined as the probability of being exposed at each time point, conditional on the lagged exposure (Xm1), the confounder (Z), and the lagged confounder (Zm1). This will serve as the denominator of our stabilized and unstabilized weights. The second is just the probability of being exposed at each time point. This will serve as the numerator of our stabilized weights.

# propensity score
D$pscore <- glm(X ~ as.factor(int) + Xm1 + Z + Zm1,data=D,family=binomial(link="logit"))$fitted.values

# numerator of stabilized weights
D$p_num <- glm(X ~ as.factor(int),data=D,family=binomial(link="logit"))$fitted.values

Lets take a look at the dataset now that it has the propensity score:

D %>% print(n=16)

## # A tibble: 44,645 x 12
##       ID   int  time     X   Xm1     Z   Zm1     Y timem1 last_flag pscore p_num
##    <dbl> <dbl> <dbl> <dbl> <dbl> <dbl> <dbl> <dbl>  <dbl>     <dbl>  <dbl> <dbl>
##  1     1     1  1        0     0     1     0     0      0         0  0.347 0.260
##  2     1     2  2        0     0     1     1     0      1         0  0.538 0.375
##  3     1     3  3        0     0     0     1     0      2         0  0.359 0.384
##  4     1     4  4        0     0     1     0     0      3         0  0.360 0.386
##  5     1     5  5        1     0     0     1     0      4         0  0.366 0.384
##  6     1     6  6        1     1     0     0     0      5         0  0.375 0.388
##  7     1     7  7        0     1     0     0     0      6         0  0.374 0.381
##  8     1     8  8        0     0     1     0     0      7         0  0.359 0.376
##  9     1     9  9        0     0     0     1     0      8         0  0.352 0.361
## 10     1    10 10        1     0     1     0     0      9         0  0.344 0.353
## 11     1    11 11        0     1     0     1     0     10         0  0.550 0.374
## 12     1    12 12        1     0     1     0     0     11         1  0.373 0.381
## 13     2     1  1        0     0     0     0     0      0         0  0.211 0.260
## 14     2     2  2        1     0     1     0     0      1         0  0.364 0.375
## 15     2     3  3        0     1     1     1     0      2         0  0.698 0.384
## 16     2     4  3.21     1     0     1     1     1      3         1  0.534 0.386
## #  with 44,629 more rows

Next, we create the stabilized and unstabilized weights. To do this, we first obtain the probability of the observed exposure. That is, in a given time point, if a person is exposed, their numerator should be p_num and their denominator should be pscore. If they are instead unexposed, their numerator should be 1 - p_num and their denominator should be 1 - pscore:

D <- D %>% group_by(ID) %>% 
  mutate(num = X*p_num + (1-X)*(1-p_num),
         den = X*pscore + (1-X)*(1-pscore),
         sw = cumprod(num/den),
         w = cumprod(1/den)) %>% 
  ungroup(ID)

D %>% select(ID, time, X, pscore, p_num, num, den, sw, w) %>% print(n=16)

## # A tibble: 44,645 x 9
##       ID  time     X pscore p_num   num   den    sw       w
##    <dbl> <dbl> <dbl>  <dbl> <dbl> <dbl> <dbl> <dbl>   <dbl>
##  1     1  1        0  0.347 0.260 0.740 0.653 1.13     1.53
##  2     1  2        0  0.538 0.375 0.625 0.462 1.53     3.31
##  3     1  3        0  0.359 0.384 0.616 0.641 1.47     5.17
##  4     1  4        0  0.360 0.386 0.614 0.640 1.41     8.08
##  5     1  5        1  0.366 0.384 0.384 0.366 1.48    22.1 
##  6     1  6        1  0.375 0.388 0.388 0.375 1.54    58.8 
##  7     1  7        0  0.374 0.381 0.619 0.626 1.52    94.0 
##  8     1  8        0  0.359 0.376 0.624 0.641 1.48   147.  
##  9     1  9        0  0.352 0.361 0.639 0.648 1.46   226.  
## 10     1 10        1  0.344 0.353 0.353 0.344 1.49   657.  
## 11     1 11        0  0.550 0.374 0.626 0.450 2.08  1460.  
## 12     1 12        1  0.373 0.381 0.381 0.373 2.12  3914.  
## 13     2  1        0  0.211 0.260 0.740 0.789 0.938    1.27
## 14     2  2        1  0.364 0.375 0.375 0.364 0.966    3.48
## 15     2  3        0  0.698 0.384 0.616 0.302 1.97    11.5 
## 16     2  3.21     1  0.534 0.386 0.386 0.534 1.42    21.6 
## #  with 44,629 more rows
…
